…
df <- as_tibble(m, rownames = 'index')
{% endhighlight %}

We have a data frame with 6 binary columns, and we want to create another one which is the sum of these columns. The most straighforward way is using `mutate()` directly


{% highlight r %}
mutate(df, total = A + B + C + D + E + F)
{% endhighlight %}



{% highlight text %}
## # A tibble: 1,000,000 x 8
##    index     A     B     C     D     E     F total
##    <chr> <dbl> <dbl> <dbl> <dbl> <dbl> <dbl> <dbl>
##  1 00001     0     0     0     1     1     0     2
##  2 00002     1     0     0     0     0     1     2
##  3 00003     1     1     0     1     0     1     4
##  4 00004     1     0     0     1     0     0     2
##  5 00005     1     0     0     1     1     0     3
##  6 00006     1     1     1     0     0     1     4
##  7 00007     0     1     0     0     1     1     3
##  8 00008     0     0     0     0     1     0     1
##  9 00009     1     0     1     1     1     1     5
## 10 00010     1     1     0     0     0     0     2
## # ... with 999,990 more rows
…
The second approach is to use tidy data principles to transform the previous data frame into long form and then perform the operation by group:


{% highlight r %}
df %>%
  gather(key, value, -index) %>%
  group_by(index) %>%
  summarize(total = sum(value))
{% endhighlight %}



{% highlight text %}
## # A tibble: 1,000,000 x 2
##    index total
##    <chr> <dbl>
##  1 00001     2
##  2 00002     2
##  3 00003     4
##  4 00004     2
##  5 00005     3
##  6 00006     4
##  7 00007     3
##  8 00008     1
##  9 00009     5
## 10 00010     2
## # ... with 999,990 more rows
{% endhighlight %}

The downside of this approach is that we have as many groups as rows in the original data frame, and usually grouped operations are not very efficient when the number of groups is very large. Of course, depending on the meaning of the columns "A", "B", etc. the data frame `df` may not be a tidy dataset, and it is always a good idea to transform those using tidy data principles. However, it also may already be in tidy form.

The next possibility is to iterate over the rows of the original data, summing them up. Here we can use the functions `apply()` or `rowSums()` from base R and `pmap()` from the `purrr` package.


{% highlight r %}
mutate(df, total = rowSums(select(df, -index)))
{% endhighlight %}



{% highlight text %}
## # A tibble: 1,000,000 x 8
##    index     A     B     C     D     E     F total
##    <chr> <dbl> <dbl> <dbl> <dbl> <dbl> <dbl> <dbl>
##  1 00001     0     0     0     1     1     0     2
##  2 00002     1     0     0     0     0     1     2
##  3 00003     1     1     0     1     0     1     4
##  4 00004     1     0     0     1     0     0     2
##  5 00005     1     0     0     1     1     0     3
##  6 00006     1     1     1     0     0     1     4
##  7 00007     0     1     0     0     1     1     3
##  8 00008     0     0     0     0     1     0     1
##  9 00009     1     0     1     1     1     1     5
## 10 00010     1     1     0     0     0     0     2
## # ... with 999,990 more rows
…
   * `apply()` coerces the data frame into a matrix, so care needs to be taken with non-numeric columns.
   * `rowSums()` can only be used if we want to perform the sum or the mean (`rowMeans()`), but not for other operations.
   * `pmap()` has variants that let you specifiy the type of the output (`pmap_dbl()`, `pmap_lgl()`) and thus are safer. If the output cannot be coerced to the given type an exception will be thrown.

Finally, we have the `reduce()` function from the `purrr` package (see [this](https://adv-r.hadley.nz/functionals.html#reduce) chapter from "Advanced R" by Hadley Wickham to learn more). This function lets us take full advantage of R vectorized operation and write the operation very concisely, whether it be 6 or 20 columns.


{% highlight r %}
mutate(df, total = reduce(select(df, -index), `+`))
{% endhighlight %}



{% highlight text %}
## # A tibble: 1,000,000 x 8
##    index     A     B     C     D     E     F total
##    <chr> <dbl> <dbl> <dbl> <dbl> <dbl> <dbl> <dbl>
##  1 00001     0     0     0     1     1     0     2
##  2 00002     1     0     0     0     0     1     2
##  3 00003     1     1     0     1     0     1     4
##  4 00004     1     0     0     1     0     0     2
##  5 00005     1     0     0     1     1     0     3
##  6 00006     1     1     1     0     0     1     4
##  7 00007     0     1     0     0     1     1     3
##  8 00008     0     0     0     0     1     0     1
##  9 00009     1     0     1     1     1     1     5
## 10 00010     1     1     0     0     0     0     2
## # ... with 999,990 more rows
…
